…
Each number represents the bootstrapped proportion. Or in other words,
it is the proportion of blue marlbes in the 20 marbles we selected when
resampling 20 marbles from the sample.

``` r
bootstrapped_proportions <- marble_data %>%
                              specify(response = marble_color, success = "blue") %>%
                              generate(reps = 1000, type = "bootstrap") %>%
                              calculate(stat = "prop") 

bootstrapped_proportions
```

    ## Response: marble_color (factor)
    ## # A tibble: 1,000 × 2
    ##    replicate  stat
    ##        <int> <dbl>
    ##  1         1  0.6 
    ##  2         2  0.65
    ##  3         3  0.65
    ##  4         4  0.8 
    ##  5         5  0.7 
    ##  6         6  0.6 
    ##  7         7  0.7 
    ##  8         8  0.8 
    ##  9         9  0.65
    ## 10        10  0.75
    ## # … with 990 more rows
…
### 4.1: Youtube - Tasks and Questions

#### a. Choose one of the following questions from the chapter 12 exercises: 1, 2, or 3.

1

#### b. Create a data frame that represents the sample data described in the question.

``` r
youtube_sample_data <- tibble(video_location = c(rep("outside", 37), rep("inside", 91)))

youtube_sample_data
```

    ## # A tibble: 128 × 1
    ##    video_location
    ##    <chr>         
    ##  1 outside       
    ##  2 outside       
    ##  3 outside       
    ##  4 outside       
    ##  5 outside       
    ##  6 outside       
    ##  7 outside       
    ##  8 outside       
    ##  9 outside       
    ## 10 outside       
    ## # … with 118 more rows

#### c. Create 1000 boostrapped sample proportions.

``` r
youtube_bootstrapped_proportions <- youtube_sample_data %>%
                              specify(response = video_location, success = "outside") %>%
                              generate(reps = 1000, type = "bootstrap") %>%
                              calculate(stat = "prop") 

youtube_bootstrapped_proportions
```

    ## Response: video_location (factor)
    ## # A tibble: 1,000 × 2
    ##    replicate  stat
    ##        <int> <dbl>
    ##  1         1 0.258
    ##  2         2 0.336
    ##  3         3 0.164
    ##  4         4 0.328
    ##  5         5 0.297
    ##  6         6 0.273
    ##  7         7 0.305
    ##  8         8 0.344
    ##  9         9 0.352
    ## 10        10 0.328
    ## # … with 990 more rows
…
### 4.1: Illness - Tasks and Questions

#### a. Choose one of the following questions from the chapter 12 exercises: 1, 2, or 3.

2

#### b. Create a data frame that represents the sample data described in the question.

``` r
illness_sample_data <- tibble(chronic = c(rep("yes", 1658), rep("no", 1356)))

illness_sample_data
```

    ## # A tibble: 3,014 × 1
    ##    chronic
    ##    <chr>  
    ##  1 yes    
    ##  2 yes    
    ##  3 yes    
    ##  4 yes    
    ##  5 yes    
    ##  6 yes    
    ##  7 yes    
    ##  8 yes    
    ##  9 yes    
    ## 10 yes    
    ## # … with 3,004 more rows

#### c. Create 1000 boostrapped sample proportions.

``` r
illness_bootstrapped_proportions <- illness_sample_data %>%
                              specify(response = chronic, success = "yes") %>%
                              generate(reps = 1000, type = "bootstrap") %>%
                              calculate(stat = "prop") 

illness_bootstrapped_proportions
```

    ## Response: chronic (factor)
    ## # A tibble: 1,000 × 2
    ##    replicate  stat
    ##        <int> <dbl>
    ##  1         1 0.554
    ##  2         2 0.544
    ##  3         3 0.561
    ##  4         4 0.551
    ##  5         5 0.563
    ##  6         6 0.560
    ##  7         7 0.545
    ##  8         8 0.538
    ##  9         9 0.552
    ## 10        10 0.551
    ## # … with 990 more rows
…
### 4.1: Twitter - Tasks and Questions

#### a. Choose one of the following questions from the chapter 12 exercises: 1, 2, or 3.

3

#### b. Create a data frame that represents the sample data described in the question.

``` r
twitter_sample_data <- tibble(twitter_news = c(rep("no", 353), rep("yes", 383)))

twitter_sample_data
```

    ## # A tibble: 736 × 1
    ##    twitter_news
    ##    <chr>       
    ##  1 no          
    ##  2 no          
    ##  3 no          
    ##  4 no          
    ##  5 no          
    ##  6 no          
    ##  7 no          
    ##  8 no          
    ##  9 no          
    ## 10 no          
    ## # … with 726 more rows

#### c. Create 1000 boostrapped sample proportions.

``` r
twitter_bootstrapped_proportions <- twitter_sample_data %>%
                              specify(response = twitter_news, success = "yes") %>%
                              generate(reps = 1000, type = "bootstrap") %>%
                              calculate(stat = "prop") 

twitter_bootstrapped_proportions
```

    ## Response: twitter_news (factor)
    ## # A tibble: 1,000 × 2
    ##    replicate  stat
    ##        <int> <dbl>
    ##  1         1 0.522
    ##  2         2 0.510
    ##  3         3 0.504
    ##  4         4 0.533
    ##  5         5 0.492
    ##  6         6 0.542
    ##  7         7 0.527
    ##  8         8 0.523
    ##  9         9 0.510
    ## 10        10 0.507
    ## # … with 990 more rows
…
